-- Merging decision tree log ---
manifest
ADDED from /home/mario/Dev/tools/flutter/.pub-cache/hosted/pub.dartlang.org/shared_preferences-0.5.12+4/android/src/main/AndroidManifest.xml:1:1-3:12
INJECTED from /home/mario/Dev/tools/flutter/.pub-cache/hosted/pub.dartlang.org/shared_preferences-0.5.12+4/android/src/main/AndroidManifest.xml:1:1-3:12
INJECTED from /home/mario/Dev/tools/flutter/.pub-cache/hosted/pub.dartlang.org/shared_preferences-0.5.12+4/android/src/main/AndroidManifest.xml:1:1-3:12
	package
		ADDED from /home/mario/Dev/tools/flutter/.pub-cache/hosted/pub.dartlang.org/shared_preferences-0.5.12+4/android/src/main/AndroidManifest.xml:2:3-49
		INJECTED from /home/mario/Dev/tools/flutter/.pub-cache/hosted/pub.dartlang.org/shared_preferences-0.5.12+4/android/src/main/AndroidManifest.xml
		INJECTED from /home/mario/Dev/tools/flutter/.pub-cache/hosted/pub.dartlang.org/shared_preferences-0.5.12+4/android/src/main/AndroidManifest.xml
	xmlns:android
		ADDED from /home/mario/Dev/tools/flutter/.pub-cache/hosted/pub.dartlang.org/shared_preferences-0.5.12+4/android/src/main/AndroidManifest.xml:1:11-69
uses-sdk
INJECTED from /home/mario/Dev/tools/flutter/.pub-cache/hosted/pub.dartlang.org/shared_preferences-0.5.12+4/android/src/main/AndroidManifest.xml reason: use-sdk injection requested
INJECTED from /home/mario/Dev/tools/flutter/.pub-cache/hosted/pub.dartlang.org/shared_preferences-0.5.12+4/android/src/main/AndroidManifest.xml
INJECTED from /home/mario/Dev/tools/flutter/.pub-cache/hosted/pub.dartlang.org/shared_preferences-0.5.12+4/android/src/main/AndroidManifest.xml
	android:minSdkVersion
		INJECTED from /home/mario/Dev/tools/flutter/.pub-cache/hosted/pub.dartlang.org/shared_preferences-0.5.12+4/android/src/main/AndroidManifest.xml
		ADDED from /home/mario/Dev/tools/flutter/.pub-cache/hosted/pub.dartlang.org/shared_preferences-0.5.12+4/android/src/main/AndroidManifest.xml
		INJECTED from /home/mario/Dev/tools/flutter/.pub-cache/hosted/pub.dartlang.org/shared_preferences-0.5.12+4/android/src/main/AndroidManifest.xml
